module go-repo

go 1.19

require (
	github.com/gin-gonic/gin v1.8.2
	github.com/rs/zerolog v1.28.0
)

require (
	github.com/KyleBanks/depth v1.2.1 // indirect
	github.com/PuerkitoBio/purell v1.2.0 // indirect
	github.com/PuerkitoBio/urlesc v0.0.0-20170810143723-de5bf2ad4578 // indirect
	github.com/cpuguy83/go-md2man/v2 v2.0.2 // indirect
	github.com/dgrijalva/jwt-go v3.2.0+incompatible // indirect
	github.com/ghodss/yaml v1.0.0 // indirect
	github.com/gin-contrib/sse v0.1.0 // indirect
	github.com/go-openapi/jsonpointer v0.19.6 // indirect
	github.com/go-openapi/jsonreference v0.20.1 // indirect
	github.com/go-openapi/spec v0.20.7 // indirect
	github.com/go-openapi/swag v0.22.3 // indirect
	github.com/go-playground/locales v0.14.1 // indirect
	github.com/go-playground/universal-translator v0.18.0 // indirect
	github.com/go-playground/validator v9.31.0+incompatible // indirect
	github.com/go-playground/validator/v10 v10.11.1 // indirect
	github.com/go-sql-driver/mysql v1.7.0 // indirect
	github.com/goccy/go-json v0.10.0 // indirect
	github.com/gofrs/uuid v4.2.0+incompatible // indirect
	github.com/golang-jwt/jwt v3.2.2+incompatible // indirect
	github.com/google/uuid v1.3.0 // indirect
	github.com/jinzhu/gorm v1.9.16 // indirect
	github.com/jinzhu/inflection v1.0.0 // indirect
	github.com/jinzhu/now v1.1.5 // indirect
	github.com/joho/godotenv v1.4.0 // indirect
	github.com/josharian/intern v1.0.0 // indirect
	github.com/json-iterator/go v1.1.12 // indirect
	github.com/leodido/go-urn v1.2.1 // indirect
	github.com/mailru/easyjson v0.7.7 // indirect
	github.com/mattn/go-colorable v0.1.12 // indirect
	github.com/mattn/go-isatty v0.0.17 // indirect
	github.com/modern-go/concurrent v0.0.0-20180306012644-bacd9c7ef1dd // indirect
	github.com/modern-go/reflect2 v1.0.2 // indirect
	github.com/pelletier/go-toml/v2 v2.0.6 // indirect
	github.com/pkg/errors v0.9.1 // indirect
	github.com/pressly/goose v2.7.0+incompatible // indirect
	github.com/russross/blackfriday/v2 v2.1.0 // indirect
	github.com/shurcooL/sanitized_anchor_name v1.0.0 // indirect
	github.com/swaggo/files v1.0.0 // indirect
	github.com/swaggo/gin-swagger v1.5.3 // indirect
	github.com/swaggo/swag v1.8.9 // indirect
	github.com/swaggo/swag/example/celler v0.0.0-20230105154343-00dd8cb944f1 // indirect
	github.com/ugorji/go/codec v1.2.8 // indirect
	github.com/urfave/cli/v2 v2.23.7 // indirect
	github.com/xrash/smetrics v0.0.0-20201216005158-039620a65673 // indirect
	go.uber.org/atomic v1.7.0 // indirect
	go.uber.org/dig v1.16.0 // indirect
	go.uber.org/fx v1.19.1 // indirect
	go.uber.org/multierr v1.6.0 // indirect
	go.uber.org/zap v1.23.0 // indirect
	golang.org/x/crypto v0.5.0 // indirect
	golang.org/x/net v0.5.0 // indirect
	golang.org/x/sys v0.4.0 // indirect
	golang.org/x/text v0.6.0 // indirect
	golang.org/x/tools v0.5.0 // indirect
	google.golang.org/protobuf v1.28.1 // indirect
	gopkg.in/yaml.v2 v2.4.0 // indirect
	gopkg.in/yaml.v3 v3.0.1 // indirect
	gorm.io/driver/mysql v1.4.5 // indirect
	gorm.io/gorm v1.24.3 // indirect
)
